<?xml version="1.0" encoding="UTF-8"?>
<svg width="80px" height="55px" viewBox="0 0 80 55" version="1.1" xmlns="http://www.w3.org/2000/svg" xmlns:xlink="http://www.w3.org/1999/xlink">
    <!-- Generator: Sketch 52.5 (67469) - http://www.bohemiancoding.com/sketch -->
    <title>empty</title>
    <desc>Created with Sketch.</desc>
    <g id="Page-1" stroke="none" stroke-width="1" fill="none" fill-rule="evenodd">
        <g id="empty">
            <rect id="Rectangle" fill="#EEEEEE" x="0" y="0" width="80" height="55" rx="5"></rect>
            <rect id="Rectangle-Copy" fill="#C0C5CA" x="4" y="4" width="72" height="47" rx="3"></rect>
            <path d="M7,4 L27,4 L27,51 L7,51 C5.34314575,51 4,49.6568542 4,48 L4,7 C4,5.34314575 5.34314575,4 7,4 Z" id="Rectangle-Copy-2" fill="#94999F"></path>
        </g>
    </g>
</svg>